%YAML 1.1
%TAG !u! tag:unity3d.com,2011:
--- !u!114 &11400000
MonoBehaviour:
  m_ObjectHideFlags: 0
  m_CorrespondingSourceObject: {fileID: 0}
  m_PrefabInstance: {fileID: 0}
  m_PrefabAsset: {fileID: 0}
  m_GameObject: {fileID: 0}
  m_Enabled: 1
  m_EditorHideFlags: 0
  m_Script: {fileID: 11500000, guid: e9620f8c34305754d8cc9a7e49e852d9, type: 3}
  m_Name: CardsDescription_pt
  m_EditorClassIdentifier: 
  m_LocaleId:
    m_Code: pt
  m_SharedData: {fileID: 11400000, guid: c5893ae37991d9c488a6cd4cbfa30ace, type: 2}
  m_Metadata:
    m_Items:
    - id: 0
  m_TableData:
  - m_Id: 379418896203776
    m_Localized: "<color=#FFDA59>Entusiasmar:</color> {prot.dhos.1:<color=#38ff2e>+{prot.actualDefenseBoost}</color>|+{prot.actualDefenseBoost}}
      de Prote\xE7ao."
    m_Metadata:
      m_Items:
      - id: 0
  - m_Id: 472994254651392
    m_Localized: <color=#FFDA59>Unir:</color> causa {dano.dhos.1:<color=#38ff2e>{dano.otherDamage}</color>|{dano.otherDamage}}
      de Dano.
    m_Metadata:
      m_Items:
      - id: 0
  - m_Id: 475031323246592
    m_Localized: Causa {dano.dhos.0:<color=#38ff2e>{dano.actualDamage}</color>|{dano.actualDamage}}
      de Dano.
    m_Metadata:
      m_Items:
      - id: 0
  - m_Id: 475367865810944
    m_Localized: "{prot.dhos.0:<color=#38ff2e>+{prot.actualDefense}</color>|+{prot.actualDefense}}
      de Prote\xE7ao."
    m_Metadata:
      m_Items:
      - id: 0
  - m_Id: 724355793780736
    m_Localized: <color=#FFDA59>Entusiasmar:</color> {dano.dhos.1:<color=#38ff2e>+{dano.otherDamage}</color>|+{dano.otherDamage}}
      de Dano.
    m_Metadata:
      m_Items:
      - id: 0
  - m_Id: 1086093743587328
    m_Localized: <color=#FFDA59>Sacrificar</color>
    m_Metadata:
      m_Items: []
  - m_Id: 1086574993833984
    m_Localized: <color=#FFDA59>Fortalecer:</color> +{dano.dhos.1:<color=#38ff2e>{dano.actualAddDamage}</color>|{dano.actualAddDamage}}
      de Dano.
    m_Metadata:
      m_Items:
      - id: 0
  - m_Id: 1090982276202496
    m_Localized: <color=#FFDA59>Coragem:</color> Causa {dano.dhos.1:<color=#38ff2e>{dano.actualBraveDamage}</color>|{dano.actualBraveDamage}}
      de Dano.
    m_Metadata:
      m_Items:
      - id: 0
  - m_Id: 1092908095078400
    m_Localized: Perde {dano.dhos.1:<color=#38ff2e>{dano.autoDamage}</color>|{dano.autoDamage}}
      de Vida.
    m_Metadata:
      m_Items:
      - id: 0
  - m_Id: 1097178001408000
    m_Localized: Causa {dano.dhos.0:<color=#38ff2e>{dano.actualTroopDamage}</color>|{dano.actualTroopDamage}}
      de Dano por cada carta igual a esta no seu Deck. ({dano.actualTroopCount} copias)
    m_Metadata:
      m_Items:
      - id: 0
  - m_Id: 1100724658733056
    m_Localized: <color=#FFDA59>Duplicate</color>
    m_Metadata:
      m_Items: []
  - m_Id: 1101813219033088
    m_Localized: Recupera {prot.dhos.0:<color=#38ff2e>{prot.actualHealing}</color>|{prot.actualHealing}}
      de Vida.
    m_Metadata:
      m_Items:
      - id: 0
  - m_Id: 1103173138219008
    m_Localized: <color=#FFDA59>Sumir</color>.
    m_Metadata:
      m_Items: []
  - m_Id: 1104073948889088
    m_Localized: Cartas de Ataque causam {dano.dhos.0:<color=#38ff2e>+{dano.actualBonus}</color>|+{dano.actualBonus}}
      de Dano.
    m_Metadata:
      m_Items:
      - id: 0
  - m_Id: 1104904576270336
    m_Localized: <color=#FFDA59>Fixada.</color>
    m_Metadata:
      m_Items: []
  - m_Id: 1105764924489728
    m_Localized: Duplica uma carta da mesa.
    m_Metadata:
      m_Items: []
  - m_Id: 1107946377805824
    m_Localized: "Seu pr\xF3ximo ataque causar\xE1 o  {dano.dhos.0:<color=#38ff2e>{dano.index}:Dobro|Dobro|Triple</color>|{dano.index}:Dobro|Dobro|Triple}
      de Dano."
    m_Metadata:
      m_Items:
      - id: 0
  - m_Id: 1111353087983616
    m_Localized: "Ganha {dano.dhos.0:<color=#38ff2e>+{dano.actualBonus}</color>|+{dano.actualBonus}}
      de For\xE7a neste turno."
    m_Metadata:
      m_Items:
      - id: 1
  - m_Id: 1112265240051712
    m_Localized: Ataques ganham <color=#FFDA59>Perfurar</color>.
    m_Metadata:
      m_Items: []
  - m_Id: 1112978540167168
    m_Localized: Ataques causam {dano.dhos.0:<color=#38ff2e>+{dano.actualPoison}</color>|+{dano.actualPoison}}
      de veneno.
    m_Metadata:
      m_Items:
      - id: 0
  - m_Id: 1165991480885248
    m_Localized: "Ataques concedem {prot.dhos.0:<color=#38ff2e>+{prot.actualProtection}</color>|+{prot.actualProtection}}
      de Prote\xE7ao."
    m_Metadata:
      m_Items:
      - id: 0
  - m_Id: 1167138144878592
    m_Localized: Ataques causam {dano.dhos.0:<color=#38ff2e>+{dano.actualStrength}</color>|+{dano.actualStrength}}
      de Dano.
    m_Metadata:
      m_Items:
      - id: 0
  - m_Id: 1168383408570368
    m_Localized: Perde {dano.autoDamage} de vida.
    m_Metadata:
      m_Items:
      - id: 2
  references:
    version: 1
    00000000:
      type: {class: SmartFormatTag, ns: UnityEngine.Localization.Metadata, asm: Unity.Localization}
      data:
        m_Entries: 00800746375901000080878e2fae0100008047d909b001000080c73458b001000080c739cc9202000080875814590100008087f43bdc03000080071b3ee003000080c77efee10300008007a9e0e50300008087e117ea03000080873f26ec0300008047deabef03000080070ec5f20300008087823ff403000080078c76240400008087868125040000800776a3260400
    00000001:
      type: {class: SmartFormatTag, ns: UnityEngine.Localization.Metadata, asm: Unity.Localization}
      data:
        m_Entries: 00800746375901000080878e2fae0100008047d909b001000080c73458b001000080c739cc9202000080875814590100008087f43bdc03000080071b3ee003000080c77efee10300008007a9e0e50300008087e117ea03000080873f26ec0300008047deabef03000080070ec5f20300008087823ff403000080078c76240400008087868125040000800776a3260400
    00000002:
      type: {class: SmartFormatTag, ns: UnityEngine.Localization.Metadata, asm: Unity.Localization}
      data:
        m_Entries: 00800746375901000080878e2fae0100008047d909b001000080c73458b001000080c739cc9202000080875814590100008087f43bdc03000080071b3ee003000080c77efee10300008007a9e0e50300008087e117ea03000080873f26ec0300008047deabef03000080070ec5f20300008087823ff403000080078c76240400008087868125040000800776a3260400
