%YAML 1.1
%TAG !u! tag:unity3d.com,2011:
--- !u!114 &11400000
MonoBehaviour:
  m_ObjectHideFlags: 0
  m_CorrespondingSourceObject: {fileID: 0}
  m_PrefabInstance: {fileID: 0}
  m_PrefabAsset: {fileID: 0}
  m_GameObject: {fileID: 0}
  m_Enabled: 1
  m_EditorHideFlags: 0
  m_Script: {fileID: 11500000, guid: 5be51871efa6c3e4eae1703925c8f5ac, type: 3}
  m_Name: CardsNames
  m_EditorClassIdentifier: 
  m_SharedTableData: {fileID: 11400000, guid: 3c140cc797f5c8b4585bd3189cf3762f, type: 2}
  m_Tables:
  - {fileID: 11400000, guid: 619abcc03d26f534487e02b289f9560a, type: 2}
  - {fileID: 11400000, guid: e5404d6cc9691b242b0d878b2f669180, type: 2}
  m_Extensions: []
  m_Group: String Table
  references:
    version: 1
