%YAML 1.1
%TAG !u! tag:unity3d.com,2011:
--- !u!114 &11400000
MonoBehaviour:
  m_ObjectHideFlags: 0
  m_CorrespondingSourceObject: {fileID: 0}
  m_PrefabInstance: {fileID: 0}
  m_PrefabAsset: {fileID: 0}
  m_GameObject: {fileID: 0}
  m_Enabled: 1
  m_EditorHideFlags: 0
  m_Script: {fileID: 11500000, guid: e9620f8c34305754d8cc9a7e49e852d9, type: 3}
  m_Name: MainMenu_pt
  m_EditorClassIdentifier: 
  m_LocaleId:
    m_Code: pt
  m_SharedData: {fileID: 11400000, guid: 2594de2b0e3f9e740a37a4442c969166, type: 2}
  m_Metadata:
    m_Items: []
  m_TableData:
  - m_Id: 11301732352
    m_Localized: Novo Jogo
    m_Metadata:
      m_Items: []
  - m_Id: 108919963648
    m_Localized: Continuar
    m_Metadata:
      m_Items: []
  - m_Id: 182450307072
    m_Localized: "Op\xE7\xF5es"
    m_Metadata:
      m_Items: []
  - m_Id: 278470508544
    m_Localized: "Cr\xE9ditos"
    m_Metadata:
      m_Items: []
  - m_Id: 4894643189891072
    m_Localized: Voltar
    m_Metadata:
      m_Items: []
  - m_Id: 4895372935872512
    m_Localized: "Op\xE7\xF5es"
    m_Metadata:
      m_Items: []
  - m_Id: 4895541563670528
    m_Localized: Volume
    m_Metadata:
      m_Items: []
  - m_Id: 4895780643192832
    m_Localized: Geral
    m_Metadata:
      m_Items: []
  - m_Id: 4895925095022592
    m_Localized: "M\xFAsica"
    m_Metadata:
      m_Items: []
  - m_Id: 4896161393721344
    m_Localized: Efeitos Sonoros
    m_Metadata:
      m_Items: []
  - m_Id: 4896235955863552
    m_Localized: Qualidade
    m_Metadata:
      m_Items: []
  - m_Id: 4896392550203392
    m_Localized: Linguagem
    m_Metadata:
      m_Items: []
  - m_Id: 130114763763720192
    m_Localized: Tem certeza?
    m_Metadata:
      m_Items: []
  - m_Id: 130114956391325696
    m_Localized: "Esta a\xE7\xE3o ir\xE1 apagar seus dados salvos, tem certeza que
      quer iniciar um novo jogo?"
    m_Metadata:
      m_Items: []
  - m_Id: 130115179511521280
    m_Localized: Novo Jogo
    m_Metadata:
      m_Items: []
  - m_Id: 131899654767034368
    m_Localized: "\n<b>EQUIPE</b>\n\nAndr\xE9 Gustavo Nakagomi Lopez - Programa\xE7\xE3o\n\nBianca
      Suemi - Arte gr\xE1fica e Design\n\nBruno Am\xE1 Stephan - Arte gr\xE1fica
      e Design\n\nKlinsmann Hengles - Game Design e Programa\xE7\xE3o\n\nLuiz Pina
      de Sales - Programa\xE7\xE3o\n\nRodrigo Volpe Battistin - Programa\xE7\xE3o\n\nSaulo
      Alencar - M\xFAsica e Efeitos sonoros\n\n<b>FONTES</b>\n\n- Love Ya Like A
      Sister, por Kimberly Geswein, Licen\xE7a: OFL\n\n- Sunshiney, por Sideshow,
      Licen\xE7a: Apache 2.0\n\n\n"
    m_Metadata:
      m_Items: []
  references:
    version: 1
