%YAML 1.1
%TAG !u! tag:unity3d.com,2011:
--- !u!114 &11400000
MonoBehaviour:
  m_ObjectHideFlags: 0
  m_CorrespondingSourceObject: {fileID: 0}
  m_PrefabInstance: {fileID: 0}
  m_PrefabAsset: {fileID: 0}
  m_GameObject: {fileID: 0}
  m_Enabled: 1
  m_EditorHideFlags: 0
  m_Script: {fileID: 11500000, guid: 5b11a58205ec3474ca216360e9fa74a8, type: 3}
  m_Name: MainMenu Shared Data
  m_EditorClassIdentifier: 
  m_TableCollectionName: MainMenu
  m_TableCollectionNameGuidString: 2594de2b0e3f9e740a37a4442c969166
  m_Entries:
  - m_Id: 11301732352
    m_Key: New Game
    m_Metadata:
      m_Items: []
  - m_Id: 108919963648
    m_Key: Continue
    m_Metadata:
      m_Items: []
  - m_Id: 182450307072
    m_Key: Options
    m_Metadata:
      m_Items: []
  - m_Id: 278470508544
    m_Key: Credits
    m_Metadata:
      m_Items: []
  - m_Id: 4894643189891072
    m_Key: Back
    m_Metadata:
      m_Items: []
  - m_Id: 4895372935872512
    m_Key: Option
    m_Metadata:
      m_Items: []
  - m_Id: 4895541563670528
    m_Key: Volume
    m_Metadata:
      m_Items: []
  - m_Id: 4895780643192832
    m_Key: General
    m_Metadata:
      m_Items: []
  - m_Id: 4895925095022592
    m_Key: Music
    m_Metadata:
      m_Items: []
  - m_Id: 4896161393721344
    m_Key: Sound Effects
    m_Metadata:
      m_Items: []
  - m_Id: 4896235955863552
    m_Key: Quality
    m_Metadata:
      m_Items: []
  - m_Id: 4896392550203392
    m_Key: Language
    m_Metadata:
      m_Items: []
  - m_Id: 4896681961373696
    m_Key: New Entry
    m_Metadata:
      m_Items: []
  - m_Id: 130114763763720192
    m_Key: ConfirmationTitle
    m_Metadata:
      m_Items: []
  - m_Id: 130114956391325696
    m_Key: ConfirmationWarning
    m_Metadata:
      m_Items: []
  - m_Id: 130115179511521280
    m_Key: ConfirmNewGame
    m_Metadata:
      m_Items: []
  - m_Id: 131899654767034368
    m_Key: Credits_Full
    m_Metadata:
      m_Items: []
  m_Metadata:
    m_Items: []
  m_KeyGenerator:
    id: 0
  references:
    version: 1
    00000000:
      type: {class: DistributedUIDGenerator, ns: UnityEngine.Localization.Tables,
        asm: Unity.Localization}
      data:
        m_CustomEpoch: 1673962369377
