%YAML 1.1
%TAG !u! tag:unity3d.com,2011:
--- !u!114 &11400000
MonoBehaviour:
  m_ObjectHideFlags: 0
  m_CorrespondingSourceObject: {fileID: 0}
  m_PrefabInstance: {fileID: 0}
  m_PrefabAsset: {fileID: 0}
  m_GameObject: {fileID: 0}
  m_Enabled: 1
  m_EditorHideFlags: 0
  m_Script: {fileID: 11500000, guid: 2ebcd04cba6457a46904f9158605991b, type: 3}
  m_Name: BalletShoe
  m_EditorClassIdentifier: 
  sprite: {fileID: 21300000, guid: f931ef93842311f408ebee769e4e7615, type: 3}
  bossThatIsSaved: {fileID: 11400000, guid: 6d22bd7c9535f784797c20ab0d360e0b, type: 2}
