%YAML 1.1
%TAG !u! tag:unity3d.com,2011:
--- !u!114 &11400000
MonoBehaviour:
  m_ObjectHideFlags: 0
  m_CorrespondingSourceObject: {fileID: 0}
  m_PrefabInstance: {fileID: 0}
  m_PrefabAsset: {fileID: 0}
  m_GameObject: {fileID: 0}
  m_Enabled: 1
  m_EditorHideFlags: 0
  m_Script: {fileID: 11500000, guid: 172a18591b97f584cb1c0b2ca717f4f1, type: 3}
  m_Name: Demo_ComeAndGoStone
  m_EditorClassIdentifier: 
  cards:
  - {fileID: 8497017385830067634, guid: 0d04ccd0f1a9e63408392056f3481306, type: 3}
  - {fileID: 7872347440392931497, guid: 8e431e50af3d3ce4681ee2f195d278b3, type: 3}
  - {fileID: 3909049224605205197, guid: a26a56a3d6c4b9343b6c2baf598cfe96, type: 3}
  - {fileID: 7872347440392931497, guid: f7ae5f7e01054cb4cba2a350a679d097, type: 3}
  - {fileID: 3909049224605205197, guid: 035912666da06f942a77b61d6146f825, type: 3}
  - {fileID: 7179399998904961223, guid: 8bc6dfae29bec1d8abd7f4ac3f4ed6ee, type: 3}
