%YAML 1.1
%TAG !u! tag:unity3d.com,2011:
--- !u!114 &11400000
MonoBehaviour:
  m_ObjectHideFlags: 0
  m_CorrespondingSourceObject: {fileID: 0}
  m_PrefabInstance: {fileID: 0}
  m_PrefabAsset: {fileID: 0}
  m_GameObject: {fileID: 0}
  m_Enabled: 1
  m_EditorHideFlags: 0
  m_Script: {fileID: 11500000, guid: 172a18591b97f584cb1c0b2ca717f4f1, type: 3}
  m_Name: Pack_ATQ
  m_EditorClassIdentifier: 
  cards:
  - {fileID: 7872347440392931497, guid: f7a2fc28e1e534147a232031ba059db0, type: 3}
  - {fileID: 8497017385830067634, guid: 0d04ccd0f1a9e63408392056f3481306, type: 3}
  - {fileID: 7872347440392931497, guid: c61cd76c7a8350a42ba2707e71938e82, type: 3}
  - {fileID: 7872347440392931497, guid: 8e431e50af3d3ce4681ee2f195d278b3, type: 3}
  - {fileID: 7872347440392931497, guid: aecbea6e7f1962e4fb6f82294b8aaba4, type: 3}
  - {fileID: 7872347440392931497, guid: 214d94ca5f3f1b4478960b3486f13498, type: 3}
  - {fileID: 7872347440392931497, guid: f7ae5f7e01054cb4cba2a350a679d097, type: 3}
  - {fileID: 7872347440392931497, guid: 0fdd11b145a0c6c4bb5860e67f95ab8a, type: 3}
