%YAML 1.1
%TAG !u! tag:unity3d.com,2011:
--- !u!114 &11400000
MonoBehaviour:
  m_ObjectHideFlags: 0
  m_CorrespondingSourceObject: {fileID: 0}
  m_PrefabInstance: {fileID: 0}
  m_PrefabAsset: {fileID: 0}
  m_GameObject: {fileID: 0}
  m_Enabled: 1
  m_EditorHideFlags: 0
  m_Script: {fileID: 11500000, guid: 172a18591b97f584cb1c0b2ca717f4f1, type: 3}
  m_Name: PackOne_MODPiercing
  m_EditorClassIdentifier: 
  cards:
  - {fileID: 7179399998904961223, guid: 74a1397b444be334ab45b24d11def084, type: 3}
