%YAML 1.1
%TAG !u! tag:unity3d.com,2011:
--- !u!74 &7400000
AnimationClip:
  m_ObjectHideFlags: 0
  m_CorrespondingSourceObject: {fileID: 0}
  m_PrefabInstance: {fileID: 0}
  m_PrefabAsset: {fileID: 0}
  m_Name: Win
  serializedVersion: 6
  m_Legacy: 0
  m_Compressed: 0
  m_UseHighQualityCurve: 1
  m_RotationCurves: []
  m_CompressedRotationCurves: []
  m_EulerCurves: []
  m_PositionCurves: []
  m_ScaleCurves: []
  m_FloatCurves:
  - curve:
      serializedVersion: 2
      m_Curve:
      - serializedVersion: 3
        time: 0
        value: 0
        inSlope: Infinity
        outSlope: Infinity
        tangentMode: 103
        weightedMode: 0
        inWeight: 0
        outWeight: 0
      - serializedVersion: 3
        time: 1
        value: 1
        inSlope: Infinity
        outSlope: Infinity
        tangentMode: 103
        weightedMode: 0
        inWeight: 0
        outWeight: 0
      m_PreInfinity: 2
      m_PostInfinity: 2
      m_RotationOrder: 4
    attribute: m_IsActive
    path: Button
    classID: 1
    script: {fileID: 0}
  m_PPtrCurves:
  - curve:
    - time: 0
      value: {fileID: 21300000, guid: 269b6c78977915245ba6f6c4793d7868, type: 3}
    - time: 0.083333336
      value: {fileID: 21300000, guid: d7a3991438f0f604d9f87ba687fd57ba, type: 3}
    - time: 0.15
      value: {fileID: 21300000, guid: d9b149fc22c96734c88afdbe77d6999f, type: 3}
    - time: 0.23333333
      value: {fileID: 21300000, guid: b7404eba3cbf1fe46bef81ee7cbbf5b9, type: 3}
    - time: 0.3
      value: {fileID: 21300000, guid: 044a5e171fdfd614bab935526c401f1e, type: 3}
    - time: 0.38333333
      value: {fileID: 21300000, guid: 8d32b6743b6433941bd155dcda77f711, type: 3}
    - time: 0.46666667
      value: {fileID: 21300000, guid: fbe389998b53375488b9c492e13be616, type: 3}
    - time: 0.53333336
      value: {fileID: 21300000, guid: 0071e4c963a0f5548a616f609fedafbb, type: 3}
    - time: 0.6166667
      value: {fileID: 21300000, guid: 1ad5e330cb8c6334a89d1c10ba40a8e5, type: 3}
    - time: 0.7
      value: {fileID: 21300000, guid: 67596b91593563348b1af6bd9c2920e9, type: 3}
    - time: 0.76666665
      value: {fileID: 21300000, guid: 5c86bef0c78286445afe6efc201e5c8e, type: 3}
    - time: 0.85
      value: {fileID: 21300000, guid: c4b3ba0208a341b4c90381101747ba30, type: 3}
    - time: 0.9166667
      value: {fileID: 21300000, guid: 989b13d536af0014dbd6ad99696fdf43, type: 3}
    - time: 1
      value: {fileID: 21300000, guid: 56a6af7c8da8b50419761ecfa749e6ae, type: 3}
    attribute: m_Sprite
    path: 
    classID: 114
    script: {fileID: 11500000, guid: fe87c0e1cc204ed48ad3b37840f39efc, type: 3}
  m_SampleRate: 60
  m_WrapMode: 0
  m_Bounds:
    m_Center: {x: 0, y: 0, z: 0}
    m_Extent: {x: 0, y: 0, z: 0}
  m_ClipBindingConstant:
    genericBindings:
    - serializedVersion: 2
      path: 1034594571
      attribute: 2086281974
      script: {fileID: 0}
      typeID: 1
      customType: 0
      isPPtrCurve: 0
    - serializedVersion: 2
      path: 0
      attribute: 2015549526
      script: {fileID: 11500000, guid: fe87c0e1cc204ed48ad3b37840f39efc, type: 3}
      typeID: 114
      customType: 0
      isPPtrCurve: 1
    pptrCurveMapping:
    - {fileID: 21300000, guid: 269b6c78977915245ba6f6c4793d7868, type: 3}
    - {fileID: 21300000, guid: d7a3991438f0f604d9f87ba687fd57ba, type: 3}
    - {fileID: 21300000, guid: d9b149fc22c96734c88afdbe77d6999f, type: 3}
    - {fileID: 21300000, guid: b7404eba3cbf1fe46bef81ee7cbbf5b9, type: 3}
    - {fileID: 21300000, guid: 044a5e171fdfd614bab935526c401f1e, type: 3}
    - {fileID: 21300000, guid: 8d32b6743b6433941bd155dcda77f711, type: 3}
    - {fileID: 21300000, guid: fbe389998b53375488b9c492e13be616, type: 3}
    - {fileID: 21300000, guid: 0071e4c963a0f5548a616f609fedafbb, type: 3}
    - {fileID: 21300000, guid: 1ad5e330cb8c6334a89d1c10ba40a8e5, type: 3}
    - {fileID: 21300000, guid: 67596b91593563348b1af6bd9c2920e9, type: 3}
    - {fileID: 21300000, guid: 5c86bef0c78286445afe6efc201e5c8e, type: 3}
    - {fileID: 21300000, guid: c4b3ba0208a341b4c90381101747ba30, type: 3}
    - {fileID: 21300000, guid: 989b13d536af0014dbd6ad99696fdf43, type: 3}
    - {fileID: 21300000, guid: 56a6af7c8da8b50419761ecfa749e6ae, type: 3}
  m_AnimationClipSettings:
    serializedVersion: 2
    m_AdditiveReferencePoseClip: {fileID: 0}
    m_AdditiveReferencePoseTime: 0
    m_StartTime: 0
    m_StopTime: 1.0166667
    m_OrientationOffsetY: 0
    m_Level: 0
    m_CycleOffset: 0
    m_HasAdditiveReferencePose: 0
    m_LoopTime: 0
    m_LoopBlend: 0
    m_LoopBlendOrientation: 0
    m_LoopBlendPositionY: 0
    m_LoopBlendPositionXZ: 0
    m_KeepOriginalOrientation: 0
    m_KeepOriginalPositionY: 1
    m_KeepOriginalPositionXZ: 0
    m_HeightFromFeet: 0
    m_Mirror: 0
  m_EditorCurves:
  - curve:
      serializedVersion: 2
      m_Curve:
      - serializedVersion: 3
        time: 0
        value: 0
        inSlope: Infinity
        outSlope: Infinity
        tangentMode: 103
        weightedMode: 0
        inWeight: 0
        outWeight: 0
      - serializedVersion: 3
        time: 1
        value: 1
        inSlope: Infinity
        outSlope: Infinity
        tangentMode: 103
        weightedMode: 0
        inWeight: 0
        outWeight: 0
      m_PreInfinity: 2
      m_PostInfinity: 2
      m_RotationOrder: 4
    attribute: m_IsActive
    path: Button
    classID: 1
    script: {fileID: 0}
  m_EulerEditorCurves: []
  m_HasGenericRootTransform: 0
  m_HasMotionFloatCurves: 0
  m_Events: []
