%YAML 1.1
%TAG !u! tag:unity3d.com,2011:
--- !u!114 &11400000
MonoBehaviour:
  m_ObjectHideFlags: 0
  m_CorrespondingSourceObject: {fileID: 0}
  m_PrefabInstance: {fileID: 0}
  m_PrefabAsset: {fileID: 0}
  m_GameObject: {fileID: 0}
  m_Enabled: 1
  m_EditorHideFlags: 0
  m_Script: {fileID: 11500000, guid: fcd5ebaac18124c4b94d31d534bc9451, type: 3}
  m_Name: Def_MapSetup_01
  m_EditorClassIdentifier: 
  startingPoint: {x: -48, y: -241}
  initialPath:
    destination: A1
    intermediatePoints: []
  placeUnits:
  - name: A1
    startEnabled: 1
    placePrefab: {fileID: 8652442902188208427, guid: 1521635fb7740a34b9de80f0d2ea4f36,
      type: 3}
    rewardSetup: {fileID: 11400000, guid: ad8aaf2678dad8a4597990fcba95485c, type: 2}
    diff: 0
    battleSetupIndex: 1
    thisBattleSetup: {fileID: 11400000, guid: cf5961bd4b1d38e0988e813fd6a4da3e, type: 2}
    position: {x: -48, y: -241, z: 0}
    paths:
    - destination: B1
      intermediatePoints: []
    - destination: B2
      intermediatePoints: []
    enemyMaxStage: 0
    percentToHeal: 0
    chestCoins: 0
  - name: A2
    startEnabled: 1
    placePrefab: {fileID: 8652442902188208427, guid: 1521635fb7740a34b9de80f0d2ea4f36,
      type: 3}
    rewardSetup: {fileID: 11400000, guid: ad8aaf2678dad8a4597990fcba95485c, type: 2}
    diff: 0
    battleSetupIndex: 2
    thisBattleSetup: {fileID: 11400000, guid: 2c96967196044dc49a94d1d8731bb1fd, type: 2}
    position: {x: 64, y: -246, z: 0}
    paths:
    - destination: B2
      intermediatePoints: []
    - destination: B3
      intermediatePoints: []
    enemyMaxStage: 0
    percentToHeal: 0
    chestCoins: 0
  - name: B1
    startEnabled: 0
    placePrefab: {fileID: 8652442902188208427, guid: 1521635fb7740a34b9de80f0d2ea4f36,
      type: 3}
    rewardSetup: {fileID: 11400000, guid: ad8aaf2678dad8a4597990fcba95485c, type: 2}
    diff: 0
    battleSetupIndex: 1
    thisBattleSetup: {fileID: 11400000, guid: 6d22bd7c9535f784797c20ab0d360e0b, type: 2}
    position: {x: -109, y: -170, z: 0}
    paths:
    - destination: C1
      intermediatePoints: []
    enemyMaxStage: 0
    percentToHeal: 0
    chestCoins: 0
  - name: B2
    startEnabled: 0
    placePrefab: {fileID: 8652442902188208427, guid: 1521635fb7740a34b9de80f0d2ea4f36,
      type: 3}
    rewardSetup: {fileID: 11400000, guid: ad8aaf2678dad8a4597990fcba95485c, type: 2}
    diff: 0
    battleSetupIndex: 2
    thisBattleSetup: {fileID: 11400000, guid: cf5961bd4b1d38e0988e813fd6a4da3e, type: 2}
    position: {x: 9, y: -155, z: 0}
    paths:
    - destination: C2
      intermediatePoints: []
    enemyMaxStage: 0
    percentToHeal: 0
    chestCoins: 0
  - name: B3
    startEnabled: 0
    placePrefab: {fileID: 8652442902188208427, guid: 1521635fb7740a34b9de80f0d2ea4f36,
      type: 3}
    rewardSetup: {fileID: 11400000, guid: ad8aaf2678dad8a4597990fcba95485c, type: 2}
    diff: 0
    battleSetupIndex: 0
    thisBattleSetup: {fileID: 11400000, guid: 2c96967196044dc49a94d1d8731bb1fd, type: 2}
    position: {x: 104, y: -164, z: 0}
    paths:
    - destination: C3
      intermediatePoints: []
    enemyMaxStage: 0
    percentToHeal: 0
    chestCoins: 0
  - name: C1
    startEnabled: 0
    placePrefab: {fileID: 8652442902188208427, guid: b19a8e779b5517fca859f4783ed2564f,
      type: 3}
    rewardSetup: {fileID: 0}
    diff: 0
    battleSetupIndex: 1
    thisBattleSetup: {fileID: 0}
    position: {x: -106, y: -81, z: 0}
    paths:
    - destination: D1
      intermediatePoints: []
    enemyMaxStage: 0
    percentToHeal: 50
    chestCoins: 0
  - name: C2
    startEnabled: 0
    placePrefab: {fileID: 8652442902188208427, guid: 3a943d45a5003a44c8ff2be1a659214b,
      type: 3}
    rewardSetup: {fileID: 11400000, guid: 8193698a7b666d345a4065ca7a070c71, type: 2}
    diff: 0
    battleSetupIndex: 2
    thisBattleSetup: {fileID: 0}
    position: {x: -1, y: -64, z: 0}
    paths:
    - destination: D1
      intermediatePoints: []
    - destination: D2
      intermediatePoints: []
    enemyMaxStage: 0
    percentToHeal: 0
    chestCoins: 5
  - name: C3
    startEnabled: 0
    placePrefab: {fileID: 8652442902188208427, guid: 297b9ba3c6f3fb94d94f4d60098003ae,
      type: 3}
    rewardSetup: {fileID: 0}
    diff: 0
    battleSetupIndex: 2
    thisBattleSetup: {fileID: 0}
    position: {x: 105, y: -77, z: 0}
    paths:
    - destination: D2
      intermediatePoints: []
    enemyMaxStage: 0
    percentToHeal: 0
    chestCoins: 0
  - name: D1
    startEnabled: 0
    placePrefab: {fileID: 8652442902188208427, guid: 1521635fb7740a34b9de80f0d2ea4f36,
      type: 3}
    rewardSetup: {fileID: 11400000, guid: 62f207ee7510b9740a2ec657e63d8be1, type: 2}
    diff: 1
    battleSetupIndex: 0
    thisBattleSetup: {fileID: 11400000, guid: 2c96967196044dc49a94d1d8731bb1fd, type: 2}
    position: {x: -63, y: 17, z: 0}
    paths:
    - destination: E1
      intermediatePoints: []
    enemyMaxStage: 1
    percentToHeal: 0
    chestCoins: 0
  - name: D2
    startEnabled: 0
    placePrefab: {fileID: 8652442902188208427, guid: 1521635fb7740a34b9de80f0d2ea4f36,
      type: 3}
    rewardSetup: {fileID: 11400000, guid: 62f207ee7510b9740a2ec657e63d8be1, type: 2}
    diff: 1
    battleSetupIndex: 2
    thisBattleSetup: {fileID: 11400000, guid: cf5961bd4b1d38e0988e813fd6a4da3e, type: 2}
    position: {x: 51, y: 22, z: 0}
    paths:
    - destination: E2
      intermediatePoints: []
    - destination: E3
      intermediatePoints: []
    enemyMaxStage: 1
    percentToHeal: 0
    chestCoins: 0
  - name: E1
    startEnabled: 0
    placePrefab: {fileID: 8652442902188208427, guid: 297b9ba3c6f3fb94d94f4d60098003ae,
      type: 3}
    rewardSetup: {fileID: 0}
    diff: 0
    battleSetupIndex: 0
    thisBattleSetup: {fileID: 0}
    position: {x: -99, y: 104, z: 0}
    paths:
    - destination: F1
      intermediatePoints: []
    enemyMaxStage: 0
    percentToHeal: 0
    chestCoins: 0
  - name: E2
    startEnabled: 0
    placePrefab: {fileID: 8652442902188208427, guid: 1521635fb7740a34b9de80f0d2ea4f36,
      type: 3}
    rewardSetup: {fileID: 11400000, guid: ad8aaf2678dad8a4597990fcba95485c, type: 2}
    diff: 2
    battleSetupIndex: 0
    thisBattleSetup: {fileID: 11400000, guid: 2c96967196044dc49a94d1d8731bb1fd, type: 2}
    position: {x: 19, y: 100, z: 0}
    paths:
    - destination: F2
      intermediatePoints: []
    enemyMaxStage: 1
    percentToHeal: 0
    chestCoins: 0
  - name: E3
    startEnabled: 0
    placePrefab: {fileID: 8652442902188208427, guid: 1521635fb7740a34b9de80f0d2ea4f36,
      type: 3}
    rewardSetup: {fileID: 11400000, guid: ad8aaf2678dad8a4597990fcba95485c, type: 2}
    diff: 2
    battleSetupIndex: 0
    thisBattleSetup: {fileID: 11400000, guid: 2c96967196044dc49a94d1d8731bb1fd, type: 2}
    position: {x: 100, y: 112, z: 0}
    paths:
    - destination: F3
      intermediatePoints: []
    enemyMaxStage: 1
    percentToHeal: 0
    chestCoins: 0
  - name: F1
    startEnabled: 0
    placePrefab: {fileID: 8652442902188208427, guid: 1521635fb7740a34b9de80f0d2ea4f36,
      type: 3}
    rewardSetup: {fileID: 11400000, guid: ad8aaf2678dad8a4597990fcba95485c, type: 2}
    diff: 2
    battleSetupIndex: 1
    thisBattleSetup: {fileID: 11400000, guid: cf5961bd4b1d38e0988e813fd6a4da3e, type: 2}
    position: {x: -94, y: 196, z: 0}
    paths:
    - destination: G1
      intermediatePoints: []
    enemyMaxStage: 1
    percentToHeal: 0
    chestCoins: 0
  - name: F2
    startEnabled: 0
    placePrefab: {fileID: 8652442902188208427, guid: 297b9ba3c6f3fb94d94f4d60098003ae,
      type: 3}
    rewardSetup: {fileID: 0}
    diff: 0
    battleSetupIndex: 0
    thisBattleSetup: {fileID: 0}
    position: {x: 19, y: 182, z: 0}
    paths:
    - destination: G1
      intermediatePoints: []
    enemyMaxStage: 0
    percentToHeal: 0
    chestCoins: 0
  - name: F3
    startEnabled: 0
    placePrefab: {fileID: 8652442902188208427, guid: b19a8e779b5517fca859f4783ed2564f,
      type: 3}
    rewardSetup: {fileID: 0}
    diff: 0
    battleSetupIndex: 1
    thisBattleSetup: {fileID: 0}
    position: {x: 104, y: 204, z: 0}
    paths:
    - destination: G1
      intermediatePoints: []
    enemyMaxStage: 0
    percentToHeal: 50
    chestCoins: 0
  - name: G1
    startEnabled: 0
    placePrefab: {fileID: 8652442902188208427, guid: 82be2fe05f5ed4043bafefff6d76e657,
      type: 3}
    rewardSetup: {fileID: 11400000, guid: 8193698a7b666d345a4065ca7a070c71, type: 2}
    diff: 3
    battleSetupIndex: 1
    thisBattleSetup: {fileID: 11400000, guid: ddfb5992f06a35d48ae29088543de209, type: 2}
    position: {x: 0, y: 278, z: 0}
    paths: []
    enemyMaxStage: 2
    percentToHeal: 0
    chestCoins: 0
