%YAML 1.1
%TAG !u! tag:unity3d.com,2011:
--- !u!114 &11400000
MonoBehaviour:
  m_ObjectHideFlags: 0
  m_CorrespondingSourceObject: {fileID: 0}
  m_PrefabInstance: {fileID: 0}
  m_PrefabAsset: {fileID: 0}
  m_GameObject: {fileID: 0}
  m_Enabled: 1
  m_EditorHideFlags: 0
  m_Script: {fileID: 11500000, guid: fcd5ebaac18124c4b94d31d534bc9451, type: 3}
  m_Name: Map_01
  m_EditorClassIdentifier: 
  startingPoint: {x: 0, y: -250}
  initialPath:
    destination: A1
    intermediatePoints: []
  placeUnits:
  - name: A1
    startEnabled: 0
    placePrefab: {fileID: 8652442902188208427, guid: 297b9ba3c6f3fb94d94f4d60098003ae,
      type: 3}
    rewardSetup: {fileID: 0}
    diff: 0
    battleSetupIndex: 0
    thisBattleSetup: {fileID: 0}
    position: {x: 0, y: -250, z: 0}
    paths: []
    enemyMaxStage: 0
    percentToHeal: 0
    chestCoins: 0
  - name: B1
    startEnabled: 0
    placePrefab: {fileID: 8652442902188208427, guid: 1521635fb7740a34b9de80f0d2ea4f36,
      type: 3}
    rewardSetup: {fileID: 0}
    diff: 0
    battleSetupIndex: 0
    thisBattleSetup: {fileID: 11400000, guid: cf5961bd4b1d38e0988e813fd6a4da3e, type: 2}
    position: {x: -50, y: -200, z: 0}
    paths: []
    enemyMaxStage: 0
    percentToHeal: 0
    chestCoins: 0
  - name: B2
    startEnabled: 0
    placePrefab: {fileID: 8652442902188208427, guid: 1521635fb7740a34b9de80f0d2ea4f36,
      type: 3}
    rewardSetup: {fileID: 0}
    diff: 0
    battleSetupIndex: 0
    thisBattleSetup: {fileID: 11400000, guid: 32453b06385af6d4098d8c8880e88473, type: 2}
    position: {x: 50, y: -200, z: 0}
    paths: []
    enemyMaxStage: 0
    percentToHeal: 0
    chestCoins: 0
  - name: C1
    startEnabled: 0
    placePrefab: {fileID: 8652442902188208427, guid: 1521635fb7740a34b9de80f0d2ea4f36,
      type: 3}
    rewardSetup: {fileID: 0}
    diff: 0
    battleSetupIndex: 0
    thisBattleSetup: {fileID: 11400000, guid: 261767a3d5e8a9794a9a6f543bb42f6c, type: 2}
    position: {x: -50, y: -150, z: 0}
    paths: []
    enemyMaxStage: 1
    percentToHeal: 0
    chestCoins: 0
  - name: C2
    startEnabled: 0
    placePrefab: {fileID: 8652442902188208427, guid: 1521635fb7740a34b9de80f0d2ea4f36,
      type: 3}
    rewardSetup: {fileID: 0}
    diff: 0
    battleSetupIndex: 0
    thisBattleSetup: {fileID: 11400000, guid: 37d35a8d8dbe6fc42853cdec78345c93, type: 2}
    position: {x: 50, y: -150, z: 0}
    paths: []
    enemyMaxStage: 0
    percentToHeal: 0
    chestCoins: 0
  - name: D1
    startEnabled: 0
    placePrefab: {fileID: 8652442902188208427, guid: 297b9ba3c6f3fb94d94f4d60098003ae,
      type: 3}
    rewardSetup: {fileID: 0}
    diff: 0
    battleSetupIndex: 0
    thisBattleSetup: {fileID: 0}
    position: {x: -50, y: -100, z: 0}
    paths: []
    enemyMaxStage: 0
    percentToHeal: 0
    chestCoins: 0
  - name: D2
    startEnabled: 0
    placePrefab: {fileID: 8652442902188208427, guid: 3a943d45a5003a44c8ff2be1a659214b,
      type: 3}
    rewardSetup: {fileID: 0}
    diff: 0
    battleSetupIndex: 0
    thisBattleSetup: {fileID: 0}
    position: {x: 50, y: -100, z: 0}
    paths: []
    enemyMaxStage: 0
    percentToHeal: 0
    chestCoins: 0
  - name: E1
    startEnabled: 0
    placePrefab: {fileID: 8652442902188208427, guid: 1521635fb7740a34b9de80f0d2ea4f36,
      type: 3}
    rewardSetup: {fileID: 0}
    diff: 0
    battleSetupIndex: 0
    thisBattleSetup: {fileID: 11400000, guid: 32453b06385af6d4098d8c8880e88473, type: 2}
    position: {x: -50, y: -50, z: 0}
    paths: []
    enemyMaxStage: 0
    percentToHeal: 0
    chestCoins: 0
  - name: E2
    startEnabled: 0
    placePrefab: {fileID: 8652442902188208427, guid: 1521635fb7740a34b9de80f0d2ea4f36,
      type: 3}
    rewardSetup: {fileID: 0}
    diff: 0
    battleSetupIndex: 0
    thisBattleSetup: {fileID: 11400000, guid: cf5961bd4b1d38e0988e813fd6a4da3e, type: 2}
    position: {x: 50, y: -50, z: 0}
    paths: []
    enemyMaxStage: 1
    percentToHeal: 0
    chestCoins: 0
  - name: F1
    startEnabled: 0
    placePrefab: {fileID: 8652442902188208427, guid: 297b9ba3c6f3fb94d94f4d60098003ae,
      type: 3}
    rewardSetup: {fileID: 0}
    diff: 0
    battleSetupIndex: 0
    thisBattleSetup: {fileID: 0}
    position: {x: -50, y: 0, z: 0}
    paths: []
    enemyMaxStage: 0
    percentToHeal: 0
    chestCoins: 0
  - name: F2
    startEnabled: 0
    placePrefab: {fileID: 8652442902188208427, guid: 297b9ba3c6f3fb94d94f4d60098003ae,
      type: 3}
    rewardSetup: {fileID: 0}
    diff: 0
    battleSetupIndex: 0
    thisBattleSetup: {fileID: 0}
    position: {x: 50, y: 0, z: 0}
    paths: []
    enemyMaxStage: 0
    percentToHeal: 0
    chestCoins: 0
  - name: G1
    startEnabled: 0
    placePrefab: {fileID: 8652442902188208427, guid: 19fed87c108c12b448231d324f73db14,
      type: 3}
    rewardSetup: {fileID: 0}
    diff: 0
    battleSetupIndex: 0
    thisBattleSetup: {fileID: 11400000, guid: 37d35a8d8dbe6fc42853cdec78345c93, type: 2}
    position: {x: 0, y: 50, z: 0}
    paths: []
    enemyMaxStage: 1
    percentToHeal: 0
    chestCoins: 0
  - name: H1
    startEnabled: 0
    placePrefab: {fileID: 8652442902188208427, guid: 1521635fb7740a34b9de80f0d2ea4f36,
      type: 3}
    rewardSetup: {fileID: 0}
    diff: 0
    battleSetupIndex: 0
    thisBattleSetup: {fileID: 11400000, guid: 32453b06385af6d4098d8c8880e88473, type: 2}
    position: {x: -50, y: 100, z: 0}
    paths: []
    enemyMaxStage: 2
    percentToHeal: 0
    chestCoins: 0
  - name: H2
    startEnabled: 0
    placePrefab: {fileID: 8652442902188208427, guid: 1521635fb7740a34b9de80f0d2ea4f36,
      type: 3}
    rewardSetup: {fileID: 0}
    diff: 0
    battleSetupIndex: 0
    thisBattleSetup: {fileID: 11400000, guid: cf5961bd4b1d38e0988e813fd6a4da3e, type: 2}
    position: {x: 50, y: 100, z: 0}
    paths: []
    enemyMaxStage: 2
    percentToHeal: 0
    chestCoins: 0
  - name: J1
    startEnabled: 0
    placePrefab: {fileID: 8652442902188208427, guid: 3a943d45a5003a44c8ff2be1a659214b,
      type: 3}
    rewardSetup: {fileID: 0}
    diff: 0
    battleSetupIndex: 0
    thisBattleSetup: {fileID: 0}
    position: {x: -50, y: 150, z: 0}
    paths: []
    enemyMaxStage: 2
    percentToHeal: 0
    chestCoins: 0
  - name: J2
    startEnabled: 0
    placePrefab: {fileID: 8652442902188208427, guid: 297b9ba3c6f3fb94d94f4d60098003ae,
      type: 3}
    rewardSetup: {fileID: 0}
    diff: 0
    battleSetupIndex: 0
    thisBattleSetup: {fileID: 0}
    position: {x: 50, y: 150, z: 0}
    paths: []
    enemyMaxStage: 2
    percentToHeal: 0
    chestCoins: 0
  - name: K1
    startEnabled: 0
    placePrefab: {fileID: 8652442902188208427, guid: 297b9ba3c6f3fb94d94f4d60098003ae,
      type: 3}
    rewardSetup: {fileID: 0}
    diff: 0
    battleSetupIndex: 0
    thisBattleSetup: {fileID: 0}
    position: {x: -50, y: 200, z: 0}
    paths: []
    enemyMaxStage: 2
    percentToHeal: 0
    chestCoins: 0
  - name: K2
    startEnabled: 0
    placePrefab: {fileID: 8652442902188208427, guid: 297b9ba3c6f3fb94d94f4d60098003ae,
      type: 3}
    rewardSetup: {fileID: 0}
    diff: 0
    battleSetupIndex: 0
    thisBattleSetup: {fileID: 0}
    position: {x: 50, y: 200, z: 0}
    paths: []
    enemyMaxStage: 2
    percentToHeal: 0
    chestCoins: 0
  - name: L1
    startEnabled: 0
    placePrefab: {fileID: 8652442902188208427, guid: 82be2fe05f5ed4043bafefff6d76e657,
      type: 3}
    rewardSetup: {fileID: 0}
    diff: 0
    battleSetupIndex: 0
    thisBattleSetup: {fileID: 11400000, guid: cf5961bd4b1d38e0988e813fd6a4da3e, type: 2}
    position: {x: 0, y: 250, z: 0}
    paths: []
    enemyMaxStage: 2
    percentToHeal: 0
    chestCoins: 0
