%YAML 1.1
%TAG !u! tag:unity3d.com,2011:
--- !u!114 &11400000
MonoBehaviour:
  m_ObjectHideFlags: 0
  m_CorrespondingSourceObject: {fileID: 0}
  m_PrefabInstance: {fileID: 0}
  m_PrefabAsset: {fileID: 0}
  m_GameObject: {fileID: 0}
  m_Enabled: 1
  m_EditorHideFlags: 0
  m_Script: {fileID: 11500000, guid: c20f433c99beaaa43944352e00b8af51, type: 3}
  m_Name: BS_ResearcherFrog3
  m_EditorClassIdentifier: 
  config: 3
  enemies:
  - {fileID: 597518765478055529, guid: 0b124282d43d0864089ae29268eedc99, type: 3}
  background: {fileID: 0}
  coinsReward: 15
  xpReward: 50
