%YAML 1.1
%TAG !u! tag:unity3d.com,2011:
--- !u!74 &7400000
AnimationClip:
  m_ObjectHideFlags: 0
  m_CorrespondingSourceObject: {fileID: 0}
  m_PrefabInstance: {fileID: 0}
  m_PrefabAsset: {fileID: 0}
  m_Name: DefaultCursor
  serializedVersion: 6
  m_Legacy: 0
  m_Compressed: 0
  m_UseHighQualityCurve: 1
  m_RotationCurves: []
  m_CompressedRotationCurves: []
  m_EulerCurves: []
  m_PositionCurves: []
  m_ScaleCurves: []
  m_FloatCurves: []
  m_PPtrCurves:
  - curve:
    - time: 0
      value: {fileID: 21300000, guid: 31719823d75228594869547bc9873f31, type: 3}
    - time: 0.13333334
      value: {fileID: 21300000, guid: e74c8b969fda59de9b3fbf67222544ef, type: 3}
    - time: 0.28333333
      value: {fileID: 21300000, guid: 0a2e07152177ac119aa2708b98aae046, type: 3}
    - time: 0.36666667
      value: {fileID: 21300000, guid: a412db2b8e2ad80f2be8c51723837106, type: 3}
    - time: 0.51666665
      value: {fileID: 21300000, guid: b02fbfb3e7d8cf6ad88a6433f30d94ae, type: 3}
    - time: 0.6333333
      value: {fileID: 21300000, guid: 7dc06ce0c07e31c438e251a46d7c97ee, type: 3}
    - time: 0.73333335
      value: {fileID: 21300000, guid: a7ec7e0dde87f130bbf2d90e9830af0c, type: 3}
    - time: 0.8666667
      value: {fileID: 21300000, guid: 2f1908e2fdc50a6d7855d4fdce3ebbfc, type: 3}
    - time: 0.98333335
      value: {fileID: 21300000, guid: 8e4fe95e02a0c013ba28a548f45bee49, type: 3}
    - time: 1.1333333
      value: {fileID: 21300000, guid: e8a25c68c7d69c7d4b2e6d78c8b73766, type: 3}
    - time: 1.2666667
      value: {fileID: 21300000, guid: 69cbd49ce4a837556930285617bb0d89, type: 3}
    - time: 1.3666667
      value: {fileID: 21300000, guid: 1fd0ddc3ed1d535fd94e8d084cccecd9, type: 3}
    - time: 1.5
      value: {fileID: 21300000, guid: 908e8a943cb78421b9983f55d87c0beb, type: 3}
    - time: 1.6333333
      value: {fileID: 21300000, guid: 2f89650b85b7191e0ad83e82e1ba7501, type: 3}
    - time: 1.7333333
      value: {fileID: 21300000, guid: ee032c41592c3ee74aacd5a4ae79ff7e, type: 3}
    - time: 1.8666667
      value: {fileID: 21300000, guid: bbe8fb2e31f0822889ff68625ac7ddd3, type: 3}
    - time: 2.0166667
      value: {fileID: 21300000, guid: 3f7e90326142b91e28b76f0fda908162, type: 3}
    - time: 2.1333334
      value: {fileID: 21300000, guid: 2e4424a482261c2799b2ea130a91d17d, type: 3}
    - time: 2.2666667
      value: {fileID: 21300000, guid: 5f2302f8b11d986f0b8dd36be0702d98, type: 3}
    - time: 2.3666666
      value: {fileID: 21300000, guid: b5b3be704b3325fb6b284f7e1f3070ef, type: 3}
    - time: 2.4833333
      value: {fileID: 21300000, guid: 98ec860a3a6898e86b24d2dc9e8c3fb0, type: 3}
    - time: 2.6333334
      value: {fileID: 21300000, guid: 893590de40c677f2ea7ace88a528dcd1, type: 3}
    - time: 2.7166667
      value: {fileID: 21300000, guid: 8e78ffabffbcc7e298cc443c9a95ae2b, type: 3}
    - time: 2.8666666
      value: {fileID: 21300000, guid: bd84c64fa96478c3787e049d7dac7893, type: 3}
    attribute: m_Sprite
    path: 
    classID: 212
    script: {fileID: 0}
  m_SampleRate: 60
  m_WrapMode: 0
  m_Bounds:
    m_Center: {x: 0, y: 0, z: 0}
    m_Extent: {x: 0, y: 0, z: 0}
  m_ClipBindingConstant:
    genericBindings:
    - serializedVersion: 2
      path: 0
      attribute: 0
      script: {fileID: 0}
      typeID: 212
      customType: 23
      isPPtrCurve: 1
    pptrCurveMapping:
    - {fileID: 21300000, guid: 31719823d75228594869547bc9873f31, type: 3}
    - {fileID: 21300000, guid: e74c8b969fda59de9b3fbf67222544ef, type: 3}
    - {fileID: 21300000, guid: 0a2e07152177ac119aa2708b98aae046, type: 3}
    - {fileID: 21300000, guid: a412db2b8e2ad80f2be8c51723837106, type: 3}
    - {fileID: 21300000, guid: b02fbfb3e7d8cf6ad88a6433f30d94ae, type: 3}
    - {fileID: 21300000, guid: 7dc06ce0c07e31c438e251a46d7c97ee, type: 3}
    - {fileID: 21300000, guid: a7ec7e0dde87f130bbf2d90e9830af0c, type: 3}
    - {fileID: 21300000, guid: 2f1908e2fdc50a6d7855d4fdce3ebbfc, type: 3}
    - {fileID: 21300000, guid: 8e4fe95e02a0c013ba28a548f45bee49, type: 3}
    - {fileID: 21300000, guid: e8a25c68c7d69c7d4b2e6d78c8b73766, type: 3}
    - {fileID: 21300000, guid: 69cbd49ce4a837556930285617bb0d89, type: 3}
    - {fileID: 21300000, guid: 1fd0ddc3ed1d535fd94e8d084cccecd9, type: 3}
    - {fileID: 21300000, guid: 908e8a943cb78421b9983f55d87c0beb, type: 3}
    - {fileID: 21300000, guid: 2f89650b85b7191e0ad83e82e1ba7501, type: 3}
    - {fileID: 21300000, guid: ee032c41592c3ee74aacd5a4ae79ff7e, type: 3}
    - {fileID: 21300000, guid: bbe8fb2e31f0822889ff68625ac7ddd3, type: 3}
    - {fileID: 21300000, guid: 3f7e90326142b91e28b76f0fda908162, type: 3}
    - {fileID: 21300000, guid: 2e4424a482261c2799b2ea130a91d17d, type: 3}
    - {fileID: 21300000, guid: 5f2302f8b11d986f0b8dd36be0702d98, type: 3}
    - {fileID: 21300000, guid: b5b3be704b3325fb6b284f7e1f3070ef, type: 3}
    - {fileID: 21300000, guid: 98ec860a3a6898e86b24d2dc9e8c3fb0, type: 3}
    - {fileID: 21300000, guid: 893590de40c677f2ea7ace88a528dcd1, type: 3}
    - {fileID: 21300000, guid: 8e78ffabffbcc7e298cc443c9a95ae2b, type: 3}
    - {fileID: 21300000, guid: bd84c64fa96478c3787e049d7dac7893, type: 3}
  m_AnimationClipSettings:
    serializedVersion: 2
    m_AdditiveReferencePoseClip: {fileID: 0}
    m_AdditiveReferencePoseTime: 0
    m_StartTime: 0
    m_StopTime: 2.8833332
    m_OrientationOffsetY: 0
    m_Level: 0
    m_CycleOffset: 0
    m_HasAdditiveReferencePose: 0
    m_LoopTime: 1
    m_LoopBlend: 0
    m_LoopBlendOrientation: 0
    m_LoopBlendPositionY: 0
    m_LoopBlendPositionXZ: 0
    m_KeepOriginalOrientation: 0
    m_KeepOriginalPositionY: 1
    m_KeepOriginalPositionXZ: 0
    m_HeightFromFeet: 0
    m_Mirror: 0
  m_EditorCurves: []
  m_EulerEditorCurves: []
  m_HasGenericRootTransform: 0
  m_HasMotionFloatCurves: 0
  m_Events: []
