%YAML 1.1
%TAG !u! tag:unity3d.com,2011:
--- !u!74 &7400000
AnimationClip:
  m_ObjectHideFlags: 0
  m_CorrespondingSourceObject: {fileID: 0}
  m_PrefabInstance: {fileID: 0}
  m_PrefabAsset: {fileID: 0}
  m_Name: EnemyCurse
  serializedVersion: 6
  m_Legacy: 0
  m_Compressed: 0
  m_UseHighQualityCurve: 1
  m_RotationCurves: []
  m_CompressedRotationCurves: []
  m_EulerCurves: []
  m_PositionCurves: []
  m_ScaleCurves: []
  m_FloatCurves: []
  m_PPtrCurves:
  - curve:
    - time: 0
      value: {fileID: 21300000, guid: f4ab1f9be6c5c144c8727bfafa5fc9cb, type: 3}
    - time: 0.041666668
      value: {fileID: 21300000, guid: 55250aac120653a44820173ce4843db3, type: 3}
    - time: 0.083333336
      value: {fileID: 21300000, guid: c7bf7614966b1d74bb2f0bb347e21a35, type: 3}
    - time: 0.125
      value: {fileID: 21300000, guid: 48f9a292ba39bac4b9af2f0440010215, type: 3}
    - time: 0.16666667
      value: {fileID: 21300000, guid: 37a4693172d948b42870bb2c122c8fce, type: 3}
    - time: 0.20833333
      value: {fileID: 21300000, guid: 7a1f8bd7ee7530b489863f4629c46222, type: 3}
    - time: 0.25
      value: {fileID: 21300000, guid: e6f2bba4bb168a44b8967b70438bdbe0, type: 3}
    - time: 0.29166666
      value: {fileID: 21300000, guid: 9104a96951d95c7408f77efd69fe8d93, type: 3}
    - time: 0.33333334
      value: {fileID: 21300000, guid: e6d4d24c6bcd34c4bba08c331b5ac1f7, type: 3}
    - time: 0.375
      value: {fileID: 21300000, guid: 0b976dd3b7c926248a3bf5d2520a9b55, type: 3}
    - time: 0.41666666
      value: {fileID: 21300000, guid: 2dc741f0749fba4439c557997ff59a0e, type: 3}
    - time: 0.45833334
      value: {fileID: 21300000, guid: 06e93b8d797af524480ff0beaab76fd8, type: 3}
    - time: 0.5
      value: {fileID: 21300000, guid: d5454383682ab4a46916f2f56dfb1cb8, type: 3}
    - time: 0.5416667
      value: {fileID: 21300000, guid: 787095fdb074ad141a2803d7a081d53d, type: 3}
    - time: 0.5833333
      value: {fileID: 21300000, guid: a2387418cef8f9241a954fc41d193d29, type: 3}
    - time: 0.625
      value: {fileID: 21300000, guid: 6dfe54c1700e97a489344722b6fb7ccd, type: 3}
    - time: 0.6666667
      value: {fileID: 21300000, guid: a6ee16311cb53784ca82b1191632b7bb, type: 3}
    - time: 0.7083333
      value: {fileID: 21300000, guid: 3e9b4117c5f04c04696068586f1d1418, type: 3}
    - time: 0.75
      value: {fileID: 21300000, guid: 5e06e367d3bd77a408d80bbde0365f82, type: 3}
    - time: 0.7916667
      value: {fileID: 21300000, guid: f61d81a9f29db644796f886174b63c2c, type: 3}
    - time: 0.8333333
      value: {fileID: 21300000, guid: 82507a578212f0f40a91a5582c6efe6b, type: 3}
    - time: 0.875
      value: {fileID: 21300000, guid: 3f9e36471fae5b1468e3e2ebf926dcd9, type: 3}
    - time: 0.9166667
      value: {fileID: 21300000, guid: a4595d16202c78448b81d19fc236fbff, type: 3}
    - time: 1.0416666
      value: {fileID: 21300000, guid: 11a9b7cb844a16945b7826e2c28f9519, type: 3}
    - time: 1.1666666
      value: {fileID: 21300000, guid: f7988a07da17bfc4aaea9ae9d108e096, type: 3}
    - time: 1.2916666
      value: {fileID: 21300000, guid: 75458db65656dfa4aba420924fee053c, type: 3}
    - time: 1.3333334
      value: {fileID: 21300000, guid: 72b762dfe7ae54341875282f82dabb95, type: 3}
    - time: 1.375
      value: {fileID: 21300000, guid: 9aaf0884f747581458fe50bc8790af1f, type: 3}
    - time: 1.4166666
      value: {fileID: 21300000, guid: 224b95e6b4846f249b5f752915e2b2dc, type: 3}
    - time: 1.4583334
      value: {fileID: 21300000, guid: ca60e002797fc6443b3c0cbf4bcfd82c, type: 3}
    - time: 1.5
      value: {fileID: 21300000, guid: 4321fb2a1f226cf489d0e3b79f3d34e0, type: 3}
    - time: 1.5416666
      value: {fileID: 21300000, guid: 470f92c098e9da14887c99edec6b10df, type: 3}
    attribute: m_Sprite
    path: 
    classID: 212
    script: {fileID: 0}
  m_SampleRate: 24
  m_WrapMode: 0
  m_Bounds:
    m_Center: {x: 0, y: 0, z: 0}
    m_Extent: {x: 0, y: 0, z: 0}
  m_ClipBindingConstant:
    genericBindings:
    - serializedVersion: 2
      path: 0
      attribute: 0
      script: {fileID: 0}
      typeID: 212
      customType: 23
      isPPtrCurve: 1
    pptrCurveMapping:
    - {fileID: 21300000, guid: f4ab1f9be6c5c144c8727bfafa5fc9cb, type: 3}
    - {fileID: 21300000, guid: 55250aac120653a44820173ce4843db3, type: 3}
    - {fileID: 21300000, guid: c7bf7614966b1d74bb2f0bb347e21a35, type: 3}
    - {fileID: 21300000, guid: 48f9a292ba39bac4b9af2f0440010215, type: 3}
    - {fileID: 21300000, guid: 37a4693172d948b42870bb2c122c8fce, type: 3}
    - {fileID: 21300000, guid: 7a1f8bd7ee7530b489863f4629c46222, type: 3}
    - {fileID: 21300000, guid: e6f2bba4bb168a44b8967b70438bdbe0, type: 3}
    - {fileID: 21300000, guid: 9104a96951d95c7408f77efd69fe8d93, type: 3}
    - {fileID: 21300000, guid: e6d4d24c6bcd34c4bba08c331b5ac1f7, type: 3}
    - {fileID: 21300000, guid: 0b976dd3b7c926248a3bf5d2520a9b55, type: 3}
    - {fileID: 21300000, guid: 2dc741f0749fba4439c557997ff59a0e, type: 3}
    - {fileID: 21300000, guid: 06e93b8d797af524480ff0beaab76fd8, type: 3}
    - {fileID: 21300000, guid: d5454383682ab4a46916f2f56dfb1cb8, type: 3}
    - {fileID: 21300000, guid: 787095fdb074ad141a2803d7a081d53d, type: 3}
    - {fileID: 21300000, guid: a2387418cef8f9241a954fc41d193d29, type: 3}
    - {fileID: 21300000, guid: 6dfe54c1700e97a489344722b6fb7ccd, type: 3}
    - {fileID: 21300000, guid: a6ee16311cb53784ca82b1191632b7bb, type: 3}
    - {fileID: 21300000, guid: 3e9b4117c5f04c04696068586f1d1418, type: 3}
    - {fileID: 21300000, guid: 5e06e367d3bd77a408d80bbde0365f82, type: 3}
    - {fileID: 21300000, guid: f61d81a9f29db644796f886174b63c2c, type: 3}
    - {fileID: 21300000, guid: 82507a578212f0f40a91a5582c6efe6b, type: 3}
    - {fileID: 21300000, guid: 3f9e36471fae5b1468e3e2ebf926dcd9, type: 3}
    - {fileID: 21300000, guid: a4595d16202c78448b81d19fc236fbff, type: 3}
    - {fileID: 21300000, guid: 11a9b7cb844a16945b7826e2c28f9519, type: 3}
    - {fileID: 21300000, guid: f7988a07da17bfc4aaea9ae9d108e096, type: 3}
    - {fileID: 21300000, guid: 75458db65656dfa4aba420924fee053c, type: 3}
    - {fileID: 21300000, guid: 72b762dfe7ae54341875282f82dabb95, type: 3}
    - {fileID: 21300000, guid: 9aaf0884f747581458fe50bc8790af1f, type: 3}
    - {fileID: 21300000, guid: 224b95e6b4846f249b5f752915e2b2dc, type: 3}
    - {fileID: 21300000, guid: ca60e002797fc6443b3c0cbf4bcfd82c, type: 3}
    - {fileID: 21300000, guid: 4321fb2a1f226cf489d0e3b79f3d34e0, type: 3}
    - {fileID: 21300000, guid: 470f92c098e9da14887c99edec6b10df, type: 3}
  m_AnimationClipSettings:
    serializedVersion: 2
    m_AdditiveReferencePoseClip: {fileID: 0}
    m_AdditiveReferencePoseTime: 0
    m_StartTime: 0
    m_StopTime: 1.5833333
    m_OrientationOffsetY: 0
    m_Level: 0
    m_CycleOffset: 0
    m_HasAdditiveReferencePose: 0
    m_LoopTime: 1
    m_LoopBlend: 0
    m_LoopBlendOrientation: 0
    m_LoopBlendPositionY: 0
    m_LoopBlendPositionXZ: 0
    m_KeepOriginalOrientation: 0
    m_KeepOriginalPositionY: 1
    m_KeepOriginalPositionXZ: 0
    m_HeightFromFeet: 0
    m_Mirror: 0
  m_EditorCurves: []
  m_EulerEditorCurves: []
  m_HasGenericRootTransform: 0
  m_HasMotionFloatCurves: 0
  m_Events:
  - time: 1.5416666
    functionName: FadeOut
    data: 
    objectReferenceParameter: {fileID: 0}
    floatParameter: 0
    intParameter: 0
    messageOptions: 0
