%YAML 1.1
%TAG !u! tag:unity3d.com,2011:
--- !u!78 &1
TagManager:
  serializedVersion: 2
  tags:
  - Card
  - BattleManager
  - PlayerDeck
  - Canvas
  - MapManager
  - GameManager
  - AudioManager
  - Crossfade
  - RewardManager
  - EnemyActionManager
  - UpgradeManager
  - LevelLoader
  - PlayerHealthBar
  - BattleSceneObjectReferences
  - BattleUIManager
  - Enemy
  layers:
  - Default
  - TransparentFX
  - Ignore Raycast
  - 
  - Water
  - UI
  - 
  - 
  - TextUI
  - 
  - 
  - 
  - 
  - 
  - 
  - 
  - 
  - 
  - 
  - 
  - 
  - 
  - 
  - 
  - 
  - 
  - 
  - 
  - 
  - 
  - 
  - 
  m_SortingLayers:
  - name: Default
    uniqueID: 0
    locked: 0
  - name: Background
    uniqueID: 801901015
    locked: 0
  - name: Reward
    uniqueID: 3484042729
    locked: 0
  - name: Enemy
    uniqueID: 4192188033
    locked: 0
  - name: Effects
    uniqueID: 3810101213
    locked: 0
  - name: UI
    uniqueID: 2566616405
    locked: 0
  - name: Upgrade
    uniqueID: 2928527955
    locked: 0
  - name: Cards
    uniqueID: 677658893
    locked: 0
  - name: CardBeingDragged
    uniqueID: 874579679
    locked: 0
  - name: Confirmation
    uniqueID: 3191237127
    locked: 0
