%YAML 1.1
%TAG !u! tag:unity3d.com,2011:
--- !u!114 &11400000
MonoBehaviour:
  m_ObjectHideFlags: 0
  m_CorrespondingSourceObject: {fileID: 0}
  m_PrefabInstance: {fileID: 0}
  m_PrefabAsset: {fileID: 0}
  m_GameObject: {fileID: 0}
  m_Enabled: 1
  m_EditorHideFlags: 0
  m_Script: {fileID: 11500000, guid: 4db626ad063b13545924a9839ac5fa83, type: 3}
  m_Name: TextureTable
  m_EditorClassIdentifier: 
  m_SharedTableData: {fileID: 11400000, guid: 3aad5c722dec68fedbb1c474994c59ac, type: 2}
  m_Tables:
  - {fileID: 11400000, guid: fa61756db454e9234978958a1b92d0c2, type: 2}
  - {fileID: 11400000, guid: 61e28289344f38ff0a41e4d0b63f6d5e, type: 2}
  m_Extensions: []
  m_Group: Asset Table
  references:
    version: 1
