%YAML 1.1
%TAG !u! tag:unity3d.com,2011:
--- !u!114 &11400000
MonoBehaviour:
  m_ObjectHideFlags: 0
  m_CorrespondingSourceObject: {fileID: 0}
  m_PrefabInstance: {fileID: 0}
  m_PrefabAsset: {fileID: 0}
  m_GameObject: {fileID: 0}
  m_Enabled: 1
  m_EditorHideFlags: 0
  m_Script: {fileID: 11500000, guid: 6316576d1d64d2f4895841ea08c8f4cf, type: 3}
  m_Name: CU_MOD_Protection
  m_EditorClassIdentifier: 
  description: 
  cardPrefab: {fileID: 7179399998904961223, guid: 01effba4a0f8f2530836b231a1d99471,
    type: 3}
